{
  "contacts": [
    {
      "id": "1",
      "name": "Donald Duck",
      "company": "Google",
      "email": "duck@google.com",
      "title": "Bububu",
      "mobile": "4454352435240",
      "photo": "https://www.pngplay.com/wp-content/uploads/12/User-Avatar-Profile-Transparent-Clip-Art-Background.png",
      "groupId": "4"
    },
    {
      "id": "sSDFsdg",
      "name": "Glenda Johnson",
      "company": "White House",
      "email": "glenda@yahoo.co.uk",
      "title": "Gagawa",
      "mobile": "45543545243",
      "photo": "https://cdn2.iconfinder.com/data/icons/business-and-finance-related-hand-gestures/256/face_female_blank_user_avatar_mannequin-512.png",
      "groupId": "2"
    },
    {
      "photo": "https://www.kindpng.com/picc/m/78-786207_user-avatar-png-user-avatar-icon-png-transparent.png",
      "name": "Tim",
      "id": "b7kX8vz",
      "email": "tyurov@it-one.ru",
      "mobile": 8911752632632
    }
  ],
  "groups": [
    {
      "id": "1",
      "name": "Colleague"
    },
    {
      "id": "2",
      "name": "Friend"
    },
    {
      "id": "3",
      "name": "Family"
    },
    {
      "id": "4",
      "name": "Service"
    },
    {
      "id": "5",
      "name": "Community"
    },
    {
      "id": "6",
      "name": "Social"
    }
  ]
}